1 10 20
100 200 125
201 210 89
900 1000 174
53704 3732 340
46559 24692 324
26255 70780 340
11599 31614 308
37830 80861 351
57355 9329 340
27312 62823 340
5488 66374 340
24847 59497 340
76711 40443 340
12440 57450 340
83572 47228 351
4806 41330 324
1147 56903 340
3214 13548 276
17216 64477 340
34697 19399 311
98948 84329 333
56133 59856 304
31510 12448 308
4789 71769 340
17025 34789 311
29752 77916 351
10630 37480 324
42996 54826 340
65450 86563 351
85732 65323 351
2373 98455 351
19927 81034 351
68988 9007 340
56382 70834 335
31219 6154 308
26973 42022 324
32479 69941 340
60080 41068 340
68717 32960 340
62329 72970 330
41851 80697 351
33951 61431 340
74650 53350 335
61972 39118 340
81518 34881 351
54895 3812 340
1649 12594 268
79520 77963 338
73350 74314 294
70838 43740 340
63349 12292 340
48736 42803 314
72741 42127 340
30358 69667 340
22258 94561 351
42795 17702 324
99584 25675 351
74187 11379 340
30816 79365 351
9509 66593 340
61028 77498 351
29956 45970 324
19919 38685 324
75814 46924 340
44989 57936 340
36466 36692 218
96633 62621 351
11613 86416 351
48161 93710 351
82964 30091 351
66435 86782 351
80258 42499 351
70611 36826 340
51900 56973 340
4219 5211 215
28947 12255 308
53578 85243 351
10542 55625 340
88665 45109 351
61813 70341 330
3982 28489 308
23840 92615 351
19950 73859 340
62525 33607 340
67207 92501 351
79651 39522 351
36494 22733 324
82311 54440 351
18510 35952 324
82143 48524 351
18526 10140 279
7921 84160 351
64440 44082 340
46255 29761 324
48519 68824 340
2796 22819 279
60335 37256 340
97942 54311 351
90158 12715 351
83955 51470 351
15500 18845 279
18750 43397 324
17009 37318 324
19542 62301 340
36930 56134 340
90412 64607 351
195 49103 324
8084 21343 279
49225 95360 351
63801 86570 351
76729 68598 325
46238 29401 324
4649 74349 340
97230 78687 338
64425 45538 340
37753 88005 351
29214 40863 324
5265 37664 324
76097 88590 351
87051 20283 351
14830 7061 276
95877 3120 351
18004 6916 279
67009 34755 340
43234 84373 351
94738 62813 351
2418 15991 276
58160 7721 340
52 94483 351
13059 43010 324
5405 64995 340
53946 66721 335
77083 70319 351
55865 52047 340
49426 5029 324
96926 29873 351
44154 10210 324
48474 48034 252
33360 52939 340
60184 84770 351
97664 37881 351
97542 20210 351
12979 92316 351
36538 14478 324
87152 74499 351
77753 44432 351
86222 55851 351
84189 81518 320
67566 54603 335
46132 3645 324
75584 31845 340
97894 50493 351
4163 66236 340
11832 99371 351
86730 76796 351
74468 11890 340
9745 9003 260
994 93050 351
14234 81569 351
80189 38475 351
98898 94576 328
81919 18959 351
57712 18152 340
37013 62912 340
71818 86084 351
44134 99527 351
66439 19759 340
15351 35868 324
2133 93182 351
47117 53054 340
46501 50720 314
74905 25701 340
42195 43712 288
27075 33865 285
10617 68610 340
52195 93965 351
2885 38036 324
89722 95139 333
51655 34761 324
20251 59528 340
1721 6025 238
62980 17657 340
58836 36735 340
95770 5646 351
83682 27547 351
51906 75304 340
93018 54225 351
69389 78789 351
20349 61317 340
47946 23061 324
96475 36457 351
16806 56644 340
76479 54408 335
14579 16176 271
76245 81388 351
78413 17087 351
84770 51803 351
27247 50878 324
22498 90616 351
7654 24329 282
97353 60449 351
66248 21278 340
64826 25968 340
