172962 438298 449
723273 438336 509
665845 294919 509
502373 884241 525
226507 831136 509
497703 847096 525
537349 192498 470
529619 553174 452
247523 826701 509
3335 14807 276
389070 978088 525
613797 448990 470
72629 151961 375
832308 787816 468
243534 966257 525
243998 727626 509
44391 458076 449
774570 808139 468
917545 426528 525
645807 463303 509
35725 344907 443
566387 521721 452
727623 121435 509
680333 998206 525
983470 386344 525
24352 162333 383
777017 857220 525
92761 130943 354
847892 973019 507
20499 475138 449
168924 578816 470
763843 359579 509
420838 508248 444
158437 195988 370
697416 38943 509
492769 907946 525
859983 246274 525
78248 818161 509
206965 218693 386
706524 841915 525
937391 689958 525
791457 995419 525
799846 940984 525
608976 765206 509
74372 128427 354
587331 499463 470
586093 867191 525
406857 210847 443
357806 968011 525
153250 930673 525
561851 429498 470
306170 382961 441
473245 525797 470
404517 333396 441
507985 405372 449
278611 28139 443
874638 97792 525
166664 752974 509
750778 520104 509
2969 515416 470
73522 577168 470
628493 784519 504
547537 232818 470
599280 638479 509
334119 583518 470
652867 118184 509
189453 702206 509
178354 656929 509
365121 874154 525
972107 348523 525
363450 798859 509
626247 974864 525
321508 257703 407
108289 176886 383
68832 967971 525
853221 182471 525
814763 449540 509
393085 167651 443
716546 38479 509
708734 544905 509
942352 689942 525
253286 426785 449
962366 171008 525
777897 619203 509
14955 926070 525
363446 514758 470
530719 393803 470
699333 259216 509
981768 918704 507
257815 170176 443
589107 72703 470
460569 844399 525
427256 811510 509
777427 506643 509
60220 877656 525
301969 54708 443
894757 270508 525
690409 303955 509
36450 439931 449
260670 178918 443
413689 72824 449
912665 354505 525
676788 942822 525
153212 158543 383
782078 763857 468
502239 51801 449
264466 146369 443
681836 551160 509
955719 764001 525
502337 29674 449
999113 222394 525
943130 878983 507
383490 833846 509
161314 924270 525
386671 630567 509
810301 446779 509
507991 609368 470
946432 890599 507
500012 322937 449
145537 560290 470
616995 289387 470
146077 805574 509
755779 10730 509
400939 718587 509
131997 750452 509
24642 277265 443
622525 342013 470
675134 261898 509
893053 612725 525
441555 269690 449
716330 425309 509
788148 851601 525
949597 145242 525
140024 148863 375
99446 416243 449
98502 195748 383
26546 672910 509
468561 824332 509
147666 75381 375
909467 124856 525
687156 295006 509
132674 318794 443
564824 987853 525
340028 415531 449
517856 931089 525
230275 651376 509
174147 190395 365
192878 899147 525
396163 211414 443
744462 780348 468
576754 793830 509
48424 633232 509
745407 529404 509
916318 781778 525
811858 59424 509
829135 974326 525
8202 406478 443
486413 906455 525
66575 417267 449
801028 594482 509
183812 895944 525
746048 244650 509
265191 730577 509
634584 328851 509
782037 43947 509
256598 407760 441
163759 324441 443
761416 944509 525
309358 857318 525
527560 842083 525
576016 513864 452
994277 600817 525
103351 571912 470
630382 62968 509
532899 623655 452
770255 339657 509
541955 325223 470
305784 733423 509
655073 551327 509
794624 587912 509
198760 66819 383
646404 854262 525
341565 211101 443
372481 68487 443
333550 689920 509
440688 112833 449
910132 79805 525
683370 76894 509
656982 853886 525
846907 796827 525
469823 529576 470
651575 993054 525
20739 712920 509
675961 739927 504
464138 493753 426
542560 537926 408
408317 918200 525
421017 73771 449
236439 26160 443
51191 693633 509
